/home/jyin/tweets_geographic_context/src/SpatialAnalysis/src/main/java/com/esri/core/geometry/OperatorConvexHullLocal.java
/home/jyin/tweets_geographic_context/src/SpatialAnalysis/src/main/java/com/esri/core/geometry/ogc/OGCMultiCurve.java
/home/jyin/tweets_geographic_context/src/SpatialAnalysis/src/main/java/com/esri/core/geometry/OperatorContains.java
/home/jyin/tweets_geographic_context/src/SpatialAnalysis/src/main/java/com/esri/core/geometry/OGCStructure.java
/home/jyin/tweets_geographic_context/src/SpatialAnalysis/src/main/java/com/esri/core/geometry/OperatorExportToWktLocal.java
/home/jyin/tweets_geographic_context/src/SpatialAnalysis/src/main/java/com/esri/core/geometry/OperatorCutCursor.java
/home/jyin/tweets_geographic_context/src/SpatialAnalysis/src/main/java/com/esri/core/geometry/MultiPath.java
/home/jyin/tweets_geographic_context/src/SpatialAnalysis/src/main/java/com/esri/core/geometry/OperatorExportToGeoJsonCursor.java
/home/jyin/tweets_geographic_context/src/SpatialAnalysis/src/main/java/com/esri/core/geometry/OperatorImportFromESRIShapeLocal.java
/home/jyin/tweets_geographic_context/src/SpatialAnalysis/src/main/java/com/esri/core/geometry/OperatorExportToGeoJson.java
/home/jyin/tweets_geographic_context/src/SpatialAnalysis/src/main/java/com/esri/core/geometry/SimpleJsonCursor.java
/home/jyin/tweets_geographic_context/src/SpatialAnalysis/src/main/java/com/esri/core/geometry/SegmentIteratorImpl.java
/home/jyin/tweets_geographic_context/src/SpatialAnalysis/src/main/java/com/esri/core/geometry/ogc/OGCPoint.java
/home/jyin/tweets_geographic_context/src/SpatialAnalysis/src/main/java/com/esri/core/geometry/OperatorBufferLocal.java
/home/jyin/tweets_geographic_context/src/SpatialAnalysis/src/main/java/com/esri/core/geometry/Wkid.java
/home/jyin/tweets_geographic_context/src/SpatialAnalysis/src/main/java/com/esri/core/geometry/SimpleJsonParserCursor.java
/home/jyin/tweets_geographic_context/src/SpatialAnalysis/src/main/java/com/esri/core/geometry/CrackAndCluster.java
/home/jyin/tweets_geographic_context/src/SpatialAnalysis/src/main/java/com/esri/core/geometry/ogc/OGCConcreteGeometryCollection.java
/home/jyin/tweets_geographic_context/src/SpatialAnalysis/src/main/java/com/esri/core/geometry/OperatorBoundaryLocalCursor.java
/home/jyin/tweets_geographic_context/src/SpatialAnalysis/src/main/java/com/esri/core/geometry/ProgressTracker.java
/home/jyin/tweets_geographic_context/src/SpatialAnalysis/src/main/java/com/esri/core/geometry/ConstructOffset.java
/home/jyin/tweets_geographic_context/src/SpatialAnalysis/src/main/java/com/esri/core/geometry/OperatorUnionLocal.java
/home/jyin/tweets_geographic_context/src/SpatialAnalysis/src/main/java/com/esri/core/geometry/MgrsConversionMode.java
/home/jyin/tweets_geographic_context/src/SpatialAnalysis/src/main/java/com/esri/core/geometry/OperatorOverlaps.java
/home/jyin/tweets_geographic_context/src/SpatialAnalysis/src/main/java/com/esri/core/geometry/OperatorSimplifyCursorOGC.java
/home/jyin/tweets_geographic_context/src/SpatialAnalysis/src/main/java/com/esri/core/geometry/Operator.java
/home/jyin/tweets_geographic_context/src/SpatialAnalysis/src/main/java/edu/geocomplexity/gis/spark/Convert.java
/home/jyin/tweets_geographic_context/src/SpatialAnalysis/src/main/java/com/esri/core/geometry/OperatorSimplifyCursor.java
/home/jyin/tweets_geographic_context/src/SpatialAnalysis/src/main/java/com/esri/core/geometry/OperatorCrosses.java
/home/jyin/tweets_geographic_context/src/SpatialAnalysis/src/main/java/com/esri/core/geometry/OperatorExportToJsonCursor.java
/home/jyin/tweets_geographic_context/src/SpatialAnalysis/src/main/java/com/esri/core/geometry/Envelope.java
/home/jyin/tweets_geographic_context/src/SpatialAnalysis/src/main/java/com/esri/core/geometry/PolylinePath.java
/home/jyin/tweets_geographic_context/src/SpatialAnalysis/src/main/java/com/esri/core/geometry/OperatorSimpleRelation.java
/home/jyin/tweets_geographic_context/src/SpatialAnalysis/src/main/java/com/esri/json/deserializer/SpatialReferenceJsonDeserializer.java
/home/jyin/tweets_geographic_context/src/SpatialAnalysis/src/main/java/com/esri/core/geometry/NumberUtils.java
/home/jyin/tweets_geographic_context/src/SpatialAnalysis/src/main/java/com/esri/core/geometry/EditShape.java
/home/jyin/tweets_geographic_context/src/SpatialAnalysis/src/main/java/com/esri/core/geometry/OperatorBoundary.java
/home/jyin/tweets_geographic_context/src/SpatialAnalysis/src/main/java/com/esri/core/geometry/Simplificator.java
/home/jyin/tweets_geographic_context/src/SpatialAnalysis/src/main/java/com/esri/core/geometry/JsonValueReader.java
/home/jyin/tweets_geographic_context/src/SpatialAnalysis/src/main/java/com/esri/core/geometry/OperatorExportToWkt.java
/home/jyin/tweets_geographic_context/src/SpatialAnalysis/src/main/java/com/esri/core/geometry/OperatorContainsLocal.java
/home/jyin/tweets_geographic_context/src/SpatialAnalysis/src/main/java/com/esri/core/geometry/MultiVertexGeometry.java
/home/jyin/tweets_geographic_context/src/SpatialAnalysis/src/main/java/com/esri/core/geometry/OperatorImportFromJsonCursor.java
/home/jyin/tweets_geographic_context/src/SpatialAnalysis/src/main/java/com/esri/core/geometry/OperatorIntersectionCursor.java
/home/jyin/tweets_geographic_context/src/SpatialAnalysis/src/main/java/com/esri/core/geometry/OperatorExportToESRIShapeLocal.java
/home/jyin/tweets_geographic_context/src/SpatialAnalysis/src/main/java/com/esri/core/geometry/OperatorExportToWkb.java
/home/jyin/tweets_geographic_context/src/SpatialAnalysis/src/main/java/com/esri/core/geometry/OperatorSymmetricDifferenceCursor.java
/home/jyin/tweets_geographic_context/src/SpatialAnalysis/src/main/java/com/esri/core/geometry/Clipper.java
/home/jyin/tweets_geographic_context/src/SpatialAnalysis/src/main/java/com/esri/core/geometry/OperatorDistanceLocal.java
/home/jyin/tweets_geographic_context/src/SpatialAnalysis/src/main/java/com/esri/core/geometry/VertexDescription.java
/home/jyin/tweets_geographic_context/src/SpatialAnalysis/src/main/java/com/esri/core/geometry/OperatorConvexHullCursor.java
/home/jyin/tweets_geographic_context/src/SpatialAnalysis/src/main/java/com/esri/core/geometry/Clusterer.java
/home/jyin/tweets_geographic_context/src/SpatialAnalysis/src/main/java/com/esri/core/geometry/OperatorOverlapsLocal.java
/home/jyin/tweets_geographic_context/src/SpatialAnalysis/src/main/java/com/esri/core/geometry/OperatorBufferCursor.java
/home/jyin/tweets_geographic_context/src/SpatialAnalysis/src/main/java/com/esri/core/geometry/OperatorGeneralize.java
/home/jyin/tweets_geographic_context/src/SpatialAnalysis/src/main/java/com/esri/core/geometry/OperatorEqualsLocal.java
/home/jyin/tweets_geographic_context/src/SpatialAnalysis/src/main/java/com/esri/core/geometry/OperatorExportToESRIShapeCursor.java
/home/jyin/tweets_geographic_context/src/SpatialAnalysis/src/main/java/com/esri/core/geometry/Polygon.java
/home/jyin/tweets_geographic_context/src/SpatialAnalysis/src/main/java/com/esri/core/geometry/OperatorExportToGeoJsonLocal.java
/home/jyin/tweets_geographic_context/src/SpatialAnalysis/src/main/java/com/esri/core/geometry/IntervalTreeImpl.java
/home/jyin/tweets_geographic_context/src/SpatialAnalysis/src/main/java/com/esri/core/geometry/AttributeStreamOfDbl.java
/home/jyin/tweets_geographic_context/src/SpatialAnalysis/src/main/java/com/esri/core/geometry/Line.java
/home/jyin/tweets_geographic_context/src/SpatialAnalysis/src/main/java/com/esri/core/geometry/JsonStringWriter.java
/home/jyin/tweets_geographic_context/src/SpatialAnalysis/src/main/java/com/esri/json/hadoop/UnenclosedJsonInputFormat.java
/home/jyin/tweets_geographic_context/src/SpatialAnalysis/src/main/java/com/esri/core/geometry/OperatorDistance.java
/home/jyin/tweets_geographic_context/src/SpatialAnalysis/src/main/java/com/esri/core/geometry/QuadTreeImpl.java
/home/jyin/tweets_geographic_context/src/SpatialAnalysis/src/main/java/com/esri/core/geometry/ogc/OGCMultiLineString.java
/home/jyin/tweets_geographic_context/src/SpatialAnalysis/src/main/java/com/esri/core/geometry/GeometrySerializer.java
/home/jyin/tweets_geographic_context/src/SpatialAnalysis/src/main/java/com/esri/core/geometry/Geometry.java
/home/jyin/tweets_geographic_context/src/SpatialAnalysis/src/main/java/com/esri/core/geometry/SpatialReference.java
/home/jyin/tweets_geographic_context/src/SpatialAnalysis/src/main/java/com/esri/core/geometry/OperatorConvexHull.java
/home/jyin/tweets_geographic_context/src/SpatialAnalysis/src/main/java/com/esri/core/geometry/SimpleGeometryCursor.java
/home/jyin/tweets_geographic_context/src/SpatialAnalysis/src/main/java/com/esri/core/geometry/OperatorBoundaryLocal.java
/home/jyin/tweets_geographic_context/src/SpatialAnalysis/src/main/java/com/esri/json/EsriFeature.java
/home/jyin/tweets_geographic_context/src/SpatialAnalysis/src/main/java/com/esri/core/geometry/OperatorDifferenceCursor.java
/home/jyin/tweets_geographic_context/src/SpatialAnalysis/src/main/java/com/esri/core/geometry/SweepMonkierComparator.java
/home/jyin/tweets_geographic_context/src/SpatialAnalysis/src/main/java/com/esri/core/geometry/OperatorImportFromESRIShapeCursor.java
/home/jyin/tweets_geographic_context/src/SpatialAnalysis/src/main/java/com/esri/json/serializer/GeometryTypeJsonSerializer.java
/home/jyin/tweets_geographic_context/src/SpatialAnalysis/src/main/java/com/esri/core/geometry/MultiPointImpl.java
/home/jyin/tweets_geographic_context/src/SpatialAnalysis/src/main/java/com/esri/core/geometry/OperatorSimplifyLocalHelper.java
/home/jyin/tweets_geographic_context/src/SpatialAnalysis/src/main/java/com/esri/json/EsriField.java
/home/jyin/tweets_geographic_context/src/SpatialAnalysis/src/main/java/com/esri/core/geometry/OperatorImportFromESRIShape.java
/home/jyin/tweets_geographic_context/src/SpatialAnalysis/src/main/java/com/esri/core/geometry/OperatorSimplify.java
/home/jyin/tweets_geographic_context/src/SpatialAnalysis/src/main/java/com/esri/core/geometry/RasterizedGeometry2D.java
/home/jyin/tweets_geographic_context/src/SpatialAnalysis/src/main/java/com/esri/core/geometry/NonSimpleResult.java
/home/jyin/tweets_geographic_context/src/SpatialAnalysis/src/main/java/com/esri/json/hadoop/EnclosedJsonInputFormat.java
/home/jyin/tweets_geographic_context/src/SpatialAnalysis/src/main/java/com/esri/core/geometry/JSONArrayEnumerator.java
/home/jyin/tweets_geographic_context/src/SpatialAnalysis/src/main/java/com/esri/core/geometry/OperatorProject.java
/home/jyin/tweets_geographic_context/src/SpatialAnalysis/src/main/java/com/esri/core/geometry/ByteBufferCursor.java
/home/jyin/tweets_geographic_context/src/SpatialAnalysis/src/main/java/com/esri/core/geometry/OperatorDisjointLocal.java
/home/jyin/tweets_geographic_context/src/SpatialAnalysis/src/main/java/com/esri/core/geometry/OperatorWithinLocal.java
/home/jyin/tweets_geographic_context/src/SpatialAnalysis/src/main/java/com/esri/core/geometry/ObjectCacheTable.java
/home/jyin/tweets_geographic_context/src/SpatialAnalysis/src/main/java/com/esri/core/geometry/OperatorTouches.java
/home/jyin/tweets_geographic_context/src/SpatialAnalysis/src/main/java/com/esri/core/geometry/ShapeImportFlags.java
/home/jyin/tweets_geographic_context/src/SpatialAnalysis/src/main/java/com/esri/core/geometry/SimpleMapGeometryCursor.java
/home/jyin/tweets_geographic_context/src/SpatialAnalysis/src/main/java/com/esri/core/geometry/SimpleByteBufferCursor.java
/home/jyin/tweets_geographic_context/src/SpatialAnalysis/src/main/java/com/esri/core/geometry/OperatorRelate.java
/home/jyin/tweets_geographic_context/src/SpatialAnalysis/src/main/java/com/esri/core/geometry/JsonReader.java
/home/jyin/tweets_geographic_context/src/SpatialAnalysis/src/main/java/com/esri/core/geometry/OperatorFactoryLocal.java
/home/jyin/tweets_geographic_context/src/SpatialAnalysis/src/main/java/com/esri/core/geometry/ECoordinate.java
/home/jyin/tweets_geographic_context/src/SpatialAnalysis/src/main/java/com/esri/core/geometry/ListeningGeometryCursor.java
/home/jyin/tweets_geographic_context/src/SpatialAnalysis/src/main/java/com/esri/core/geometry/ogc/OGCMultiSurface.java
/home/jyin/tweets_geographic_context/src/SpatialAnalysis/src/main/java/com/esri/core/geometry/OperatorEquals.java
/home/jyin/tweets_geographic_context/src/SpatialAnalysis/src/main/java/com/esri/core/geometry/WkbImportFlags.java
/home/jyin/tweets_geographic_context/src/SpatialAnalysis/src/main/java/com/esri/core/geometry/OperatorIntersectsLocal.java
/home/jyin/tweets_geographic_context/src/SpatialAnalysis/src/main/java/com/esri/core/geometry/Envelope2DIntersectorImpl.java
/home/jyin/tweets_geographic_context/src/SpatialAnalysis/src/main/java/com/esri/core/geometry/Interop.java
/home/jyin/tweets_geographic_context/src/SpatialAnalysis/src/main/java/com/esri/core/geometry/ClassicSort.java
/home/jyin/tweets_geographic_context/src/SpatialAnalysis/src/main/java/com/esri/core/geometry/OperatorDifferenceLocal.java
/home/jyin/tweets_geographic_context/src/SpatialAnalysis/src/main/java/com/esri/core/geometry/ogc/OGCLineString.java
/home/jyin/tweets_geographic_context/src/SpatialAnalysis/src/main/java/com/esri/core/geometry/WkbGeometryType.java
/home/jyin/tweets_geographic_context/src/SpatialAnalysis/src/main/java/edu/geocomplexity/gis/spark/Cell.java
/home/jyin/tweets_geographic_context/src/SpatialAnalysis/src/main/java/com/esri/core/geometry/OperatorProximity2DLocal.java
/home/jyin/tweets_geographic_context/src/SpatialAnalysis/src/main/java/com/esri/core/geometry/Point3D.java
/home/jyin/tweets_geographic_context/src/SpatialAnalysis/src/main/java/com/esri/core/geometry/OperatorImportFromJson.java
/home/jyin/tweets_geographic_context/src/SpatialAnalysis/src/main/java/com/esri/core/geometry/OperatorOffsetLocal.java
/home/jyin/tweets_geographic_context/src/SpatialAnalysis/src/main/java/com/esri/core/geometry/JsonCursor.java
/home/jyin/tweets_geographic_context/src/SpatialAnalysis/src/main/java/com/esri/core/geometry/WktImportFlags.java
/home/jyin/tweets_geographic_context/src/SpatialAnalysis/src/main/java/com/esri/core/geometry/PlaneSweepCrackerHelper.java
/home/jyin/tweets_geographic_context/src/SpatialAnalysis/src/main/java/com/esri/core/geometry/OperatorImportFromGeoJsonLocal.java
/home/jyin/tweets_geographic_context/src/SpatialAnalysis/src/main/java/com/esri/core/geometry/JsonParserReader.java
/home/jyin/tweets_geographic_context/src/SpatialAnalysis/src/main/java/com/esri/core/geometry/SegmentFlags.java
/home/jyin/tweets_geographic_context/src/SpatialAnalysis/src/main/java/com/esri/core/geometry/AttributeStreamOfInt32.java
/home/jyin/tweets_geographic_context/src/SpatialAnalysis/src/main/java/com/esri/core/geometry/AttributeStreamOfFloat.java
/home/jyin/tweets_geographic_context/src/SpatialAnalysis/src/main/java/com/esri/json/deserializer/GeometryTypeJsonDeserializer.java
/home/jyin/tweets_geographic_context/src/SpatialAnalysis/src/main/java/com/esri/core/geometry/MapGeometry.java
/home/jyin/tweets_geographic_context/src/SpatialAnalysis/src/main/java/com/esri/core/geometry/MapOGCStructure.java
/home/jyin/tweets_geographic_context/src/SpatialAnalysis/src/main/java/com/esri/core/geometry/OperatorClip.java
/home/jyin/tweets_geographic_context/src/SpatialAnalysis/src/main/java/com/esri/core/geometry/RasterizedGeometry2DImpl.java
/home/jyin/tweets_geographic_context/src/SpatialAnalysis/src/main/java/com/esri/core/geometry/QuadTree.java
/home/jyin/tweets_geographic_context/src/SpatialAnalysis/src/main/java/com/esri/core/geometry/Treap.java
/home/jyin/tweets_geographic_context/src/SpatialAnalysis/src/main/java/com/esri/core/geometry/Envelope1D.java
/home/jyin/tweets_geographic_context/src/SpatialAnalysis/src/main/java/com/esri/core/geometry/Cracker.java
/home/jyin/tweets_geographic_context/src/SpatialAnalysis/src/main/java/com/esri/core/geometry/OperatorCutLocal.java
/home/jyin/tweets_geographic_context/src/SpatialAnalysis/src/main/java/com/esri/core/geometry/BucketSort.java
/home/jyin/tweets_geographic_context/src/SpatialAnalysis/src/main/java/com/esri/core/geometry/OperatorGeodeticArea.java
/home/jyin/tweets_geographic_context/src/SpatialAnalysis/src/main/java/com/esri/core/geometry/GeometryException.java
/home/jyin/tweets_geographic_context/src/SpatialAnalysis/src/main/java/com/esri/core/geometry/OperatorImportFromWktLocal.java
/home/jyin/tweets_geographic_context/src/SpatialAnalysis/src/main/java/com/esri/core/geometry/ShapeType.java
/home/jyin/tweets_geographic_context/src/SpatialAnalysis/src/main/java/com/esri/core/geometry/SpatialReferenceImpl.java
/home/jyin/tweets_geographic_context/src/SpatialAnalysis/src/main/java/com/esri/core/geometry/SweepComparator.java
/home/jyin/tweets_geographic_context/src/SpatialAnalysis/src/main/java/com/esri/core/geometry/OperatorExportToJsonLocal.java
/home/jyin/tweets_geographic_context/src/SpatialAnalysis/src/main/java/com/esri/core/geometry/OperatorImportFromWkt.java
/home/jyin/tweets_geographic_context/src/SpatialAnalysis/src/main/java/com/esri/core/geometry/DirtyFlags.java
/home/jyin/tweets_geographic_context/src/SpatialAnalysis/src/main/java/com/esri/core/geometry/OperatorTouchesLocal.java
/home/jyin/tweets_geographic_context/src/SpatialAnalysis/src/main/java/com/esri/json/deserializer/GeometryJsonDeserializer.java
/home/jyin/tweets_geographic_context/src/SpatialAnalysis/src/main/java/com/esri/core/geometry/ogc/OGCSurface.java
/home/jyin/tweets_geographic_context/src/SpatialAnalysis/src/main/java/com/esri/json/EsriFieldType.java
/home/jyin/tweets_geographic_context/src/SpatialAnalysis/src/main/java/com/esri/core/geometry/OperatorGeodeticAreaLocal.java
/home/jyin/tweets_geographic_context/src/SpatialAnalysis/src/main/java/com/esri/core/geometry/OperatorWithin.java
/home/jyin/tweets_geographic_context/src/SpatialAnalysis/src/main/java/com/esri/core/geometry/WkbByteOrder.java
/home/jyin/tweets_geographic_context/src/SpatialAnalysis/src/main/java/com/esri/core/geometry/Wkt.java
/home/jyin/tweets_geographic_context/src/SpatialAnalysis/src/main/java/com/esri/core/geometry/OperatorSimplifyLocal.java
/home/jyin/tweets_geographic_context/src/SpatialAnalysis/src/main/java/com/esri/core/geometry/MultiPoint.java
/home/jyin/tweets_geographic_context/src/SpatialAnalysis/src/main/java/com/esri/core/geometry/Transformation3D.java
/home/jyin/tweets_geographic_context/src/SpatialAnalysis/src/main/java/com/esri/core/geometry/OperatorIntersectionLocal.java
/home/jyin/tweets_geographic_context/src/SpatialAnalysis/src/main/java/com/esri/core/geometry/OperatorImportFromGeoJson.java
/home/jyin/tweets_geographic_context/src/SpatialAnalysis/src/main/java/com/esri/core/geometry/SimpleRasterizer.java
/home/jyin/tweets_geographic_context/src/SpatialAnalysis/src/main/java/com/esri/core/geometry/OperatorIntersection.java
/home/jyin/tweets_geographic_context/src/SpatialAnalysis/src/main/java/com/esri/json/EsriFeatureClass.java
/home/jyin/tweets_geographic_context/src/SpatialAnalysis/src/main/java/com/esri/core/geometry/OperatorUnion.java
/home/jyin/tweets_geographic_context/src/SpatialAnalysis/src/main/java/com/esri/core/geometry/TopologicalOperations.java
/home/jyin/tweets_geographic_context/src/SpatialAnalysis/src/main/java/com/esri/core/geometry/IndexHashTable.java
/home/jyin/tweets_geographic_context/src/SpatialAnalysis/src/main/java/com/esri/core/geometry/TopoGraph.java
/home/jyin/tweets_geographic_context/src/SpatialAnalysis/src/main/java/com/esri/core/geometry/StringUtils.java
/home/jyin/tweets_geographic_context/src/SpatialAnalysis/src/main/java/com/esri/core/geometry/SegmentIntersector.java
/home/jyin/tweets_geographic_context/src/SpatialAnalysis/src/main/java/com/esri/core/geometry/Proximity2DResultComparator.java
/home/jyin/tweets_geographic_context/src/SpatialAnalysis/src/main/java/com/esri/core/geometry/ConvexHull.java
/home/jyin/tweets_geographic_context/src/SpatialAnalysis/src/main/java/com/esri/core/geometry/Boundary.java
/home/jyin/tweets_geographic_context/src/SpatialAnalysis/src/main/java/com/esri/core/geometry/UserCancelException.java
/home/jyin/tweets_geographic_context/src/SpatialAnalysis/src/main/java/com/esri/core/geometry/SegmentIterator.java
/home/jyin/tweets_geographic_context/src/SpatialAnalysis/src/main/java/com/esri/core/geometry/Segment.java
/home/jyin/tweets_geographic_context/src/SpatialAnalysis/src/main/java/com/esri/core/geometry/JsonParserCursor.java
/home/jyin/tweets_geographic_context/src/SpatialAnalysis/src/main/java/com/esri/core/geometry/Polyline.java
/home/jyin/tweets_geographic_context/src/SpatialAnalysis/src/main/java/com/esri/core/geometry/Bufferer.java
/home/jyin/tweets_geographic_context/src/SpatialAnalysis/src/main/java/com/esri/core/geometry/OperatorSymmetricDifferenceLocal.java
/home/jyin/tweets_geographic_context/src/SpatialAnalysis/src/main/java/com/esri/core/geometry/OperatorImportFromJsonLocal.java
/home/jyin/tweets_geographic_context/src/SpatialAnalysis/src/main/java/com/esri/core/geometry/JsonWriter.java
/home/jyin/tweets_geographic_context/src/SpatialAnalysis/src/main/java/com/esri/core/geometry/GeoDist.java
/home/jyin/tweets_geographic_context/src/SpatialAnalysis/src/main/java/com/esri/core/geometry/OperatorSimplifyOGC.java
/home/jyin/tweets_geographic_context/src/SpatialAnalysis/src/main/java/com/esri/core/geometry/IndexMultiList.java
/home/jyin/tweets_geographic_context/src/SpatialAnalysis/src/main/java/com/esri/core/geometry/OperatorClipCursor.java
/home/jyin/tweets_geographic_context/src/SpatialAnalysis/src/main/java/com/esri/core/geometry/GeoJsonExportFlags.java
/home/jyin/tweets_geographic_context/src/SpatialAnalysis/src/main/java/com/esri/json/serializer/GeometryJsonSerializer.java
/home/jyin/tweets_geographic_context/src/SpatialAnalysis/src/main/java/com/esri/core/geometry/VertexDescriptionDesignerImpl.java
/home/jyin/tweets_geographic_context/src/SpatialAnalysis/src/main/java/com/esri/core/geometry/OperatorGeodeticLengthLocal.java
/home/jyin/tweets_geographic_context/src/SpatialAnalysis/src/main/java/com/esri/core/geometry/SpatialReferenceSerializer.java
/home/jyin/tweets_geographic_context/src/SpatialAnalysis/src/main/java/com/esri/json/hadoop/EnclosedJsonRecordReader.java
/home/jyin/tweets_geographic_context/src/SpatialAnalysis/src/main/java/com/esri/core/geometry/IndexMultiDCList.java
/home/jyin/tweets_geographic_context/src/SpatialAnalysis/src/main/java/com/esri/core/geometry/RingOrientationFixer.java
/home/jyin/tweets_geographic_context/src/SpatialAnalysis/src/main/java/com/esri/core/geometry/PathFlags.java
/home/jyin/tweets_geographic_context/src/SpatialAnalysis/src/main/java/com/esri/core/geometry/OperatorProjectLocal.java
/home/jyin/tweets_geographic_context/src/SpatialAnalysis/src/main/java/com/esri/core/geometry/ogc/OGCLinearRing.java
/home/jyin/tweets_geographic_context/src/SpatialAnalysis/src/main/java/com/esri/core/geometry/Envelope3D.java
/home/jyin/tweets_geographic_context/src/SpatialAnalysis/src/main/java/com/esri/core/geometry/ogc/OGCMultiPolygon.java
/home/jyin/tweets_geographic_context/src/SpatialAnalysis/src/main/java/com/esri/core/geometry/PolygonUtils.java
/home/jyin/tweets_geographic_context/src/SpatialAnalysis/src/main/java/com/esri/core/geometry/AttributeStreamOfInt64.java
/home/jyin/tweets_geographic_context/src/SpatialAnalysis/src/main/java/com/esri/core/geometry/OperatorExportToESRIShape.java
/home/jyin/tweets_geographic_context/src/SpatialAnalysis/src/main/java/com/esri/core/geometry/OperatorImportFromWkbLocal.java
/home/jyin/tweets_geographic_context/src/SpatialAnalysis/src/main/java/com/esri/core/geometry/MultiVertexGeometryImpl.java
/home/jyin/tweets_geographic_context/src/SpatialAnalysis/src/main/java/com/esri/core/geometry/OperatorExportToWkbLocal.java
/home/jyin/tweets_geographic_context/src/SpatialAnalysis/src/main/java/com/esri/core/geometry/OperatorCut.java
/home/jyin/tweets_geographic_context/src/SpatialAnalysis/src/main/java/com/esri/core/geometry/WkbExportFlags.java
/home/jyin/tweets_geographic_context/src/SpatialAnalysis/src/main/java/com/esri/core/geometry/GeometryCursorAppend.java
/home/jyin/tweets_geographic_context/src/SpatialAnalysis/src/main/java/com/esri/core/geometry/OperatorUnionCursor.java
/home/jyin/tweets_geographic_context/src/SpatialAnalysis/src/main/java/com/esri/core/geometry/ShapeModifiers.java
/home/jyin/tweets_geographic_context/src/SpatialAnalysis/src/main/java/com/esri/core/geometry/WktExportFlags.java
/home/jyin/tweets_geographic_context/src/SpatialAnalysis/src/main/java/com/esri/core/geometry/ogc/OGCMultiPoint.java
/home/jyin/tweets_geographic_context/src/SpatialAnalysis/src/main/java/com/esri/core/geometry/PeDouble.java
/home/jyin/tweets_geographic_context/src/SpatialAnalysis/src/main/java/com/esri/json/EsriJsonFactory.java
/home/jyin/tweets_geographic_context/src/SpatialAnalysis/src/main/java/com/esri/core/geometry/MapGeometryCursor.java
/home/jyin/tweets_geographic_context/src/SpatialAnalysis/src/main/java/com/esri/core/geometry/GeometryCursor.java
/home/jyin/tweets_geographic_context/src/SpatialAnalysis/src/main/java/com/esri/core/geometry/OperatorGeneralizeCursor.java
/home/jyin/tweets_geographic_context/src/SpatialAnalysis/src/main/java/com/esri/core/geometry/VertexDescriptionHash.java
/home/jyin/tweets_geographic_context/src/SpatialAnalysis/src/main/java/com/esri/core/geometry/OperatorFactory.java
/home/jyin/tweets_geographic_context/src/SpatialAnalysis/src/main/java/com/esri/core/geometry/JSONUtils.java
/home/jyin/tweets_geographic_context/src/SpatialAnalysis/src/main/java/com/esri/core/geometry/ogc/OGCGeometry.java
/home/jyin/tweets_geographic_context/src/SpatialAnalysis/src/main/java/com/esri/json/hadoop/UnenclosedJsonRecordReader.java
/home/jyin/tweets_geographic_context/src/SpatialAnalysis/src/main/java/com/esri/core/geometry/InternalUtils.java
/home/jyin/tweets_geographic_context/src/SpatialAnalysis/src/main/java/com/esri/core/geometry/OperatorOffset.java
/home/jyin/tweets_geographic_context/src/SpatialAnalysis/src/main/java/com/esri/core/geometry/PointInPolygonHelper.java
/home/jyin/tweets_geographic_context/src/SpatialAnalysis/src/main/java/com/esri/core/geometry/OperatorProximity2D.java
/home/jyin/tweets_geographic_context/src/SpatialAnalysis/src/main/java/com/esri/core/geometry/GeodeticCurveType.java
/home/jyin/tweets_geographic_context/src/SpatialAnalysis/src/main/java/com/esri/core/geometry/ShapeExportFlags.java
/home/jyin/tweets_geographic_context/src/SpatialAnalysis/src/main/java/com/esri/core/geometry/OperatorImportFromWkb.java
/home/jyin/tweets_geographic_context/src/SpatialAnalysis/src/main/java/com/esri/core/geometry/JSONObjectEnumerator.java
/home/jyin/tweets_geographic_context/src/SpatialAnalysis/src/main/java/com/esri/core/geometry/Point.java
/home/jyin/tweets_geographic_context/src/SpatialAnalysis/src/main/java/com/esri/core/geometry/ProjectionTransformation.java
/home/jyin/tweets_geographic_context/src/SpatialAnalysis/src/main/java/com/esri/core/geometry/StridedIndexTypeCollection.java
/home/jyin/tweets_geographic_context/src/SpatialAnalysis/src/main/java/edu/geocomplexity/gis/spark/cellMapper.java
/home/jyin/tweets_geographic_context/src/SpatialAnalysis/src/main/java/com/esri/core/geometry/AttributeStreamBase.java
/home/jyin/tweets_geographic_context/src/SpatialAnalysis/src/main/java/com/esri/core/geometry/MathUtils.java
/home/jyin/tweets_geographic_context/src/SpatialAnalysis/src/main/java/com/esri/core/geometry/OperatorDensifyByLengthCursor.java
/home/jyin/tweets_geographic_context/src/SpatialAnalysis/src/main/java/edu/geocomplexity/gis/spark/TripRecord.java
/home/jyin/tweets_geographic_context/src/SpatialAnalysis/src/main/java/com/esri/core/geometry/OperatorInternalRelationUtils.java
/home/jyin/tweets_geographic_context/src/SpatialAnalysis/src/main/java/com/esri/core/geometry/GeometryEngine.java
/home/jyin/tweets_geographic_context/src/SpatialAnalysis/src/main/java/com/esri/core/geometry/OperatorDensifyByLengthLocal.java
/home/jyin/tweets_geographic_context/src/SpatialAnalysis/src/main/java/com/esri/core/geometry/ogc/OGCGeometryCollection.java
/home/jyin/tweets_geographic_context/src/SpatialAnalysis/src/main/java/com/esri/core/geometry/OperatorGeneralizeLocal.java
/home/jyin/tweets_geographic_context/src/SpatialAnalysis/src/main/java/com/esri/core/geometry/SegmentBuffer.java
/home/jyin/tweets_geographic_context/src/SpatialAnalysis/src/main/java/com/esri/core/geometry/ogc/OGCCurve.java
/home/jyin/tweets_geographic_context/src/SpatialAnalysis/src/main/java/com/esri/core/geometry/OperatorDensifyByLength.java
/home/jyin/tweets_geographic_context/src/SpatialAnalysis/src/main/java/com/esri/core/geometry/OperatorIntersects.java
/home/jyin/tweets_geographic_context/src/SpatialAnalysis/src/main/java/com/esri/core/geometry/Envelope2D.java
/home/jyin/tweets_geographic_context/src/SpatialAnalysis/src/main/java/com/esri/core/geometry/OperatorGeodeticLength.java
/home/jyin/tweets_geographic_context/src/SpatialAnalysis/src/main/java/com/esri/core/geometry/RelationalOperationsMatrix.java
/home/jyin/tweets_geographic_context/src/SpatialAnalysis/src/main/java/com/esri/core/geometry/OperatorCrossesLocal.java
/home/jyin/tweets_geographic_context/src/SpatialAnalysis/src/main/java/com/esri/core/geometry/AttributeStreamOfInt8.java
/home/jyin/tweets_geographic_context/src/SpatialAnalysis/src/main/java/com/esri/core/geometry/Cutter.java
/home/jyin/tweets_geographic_context/src/SpatialAnalysis/src/main/java/com/esri/core/geometry/GeometryAccelerators.java
/home/jyin/tweets_geographic_context/src/SpatialAnalysis/src/main/java/com/esri/core/geometry/ogc/OGCPolygon.java
/home/jyin/tweets_geographic_context/src/SpatialAnalysis/src/main/java/com/esri/core/geometry/WktParser.java
/home/jyin/tweets_geographic_context/src/SpatialAnalysis/src/main/java/com/esri/core/geometry/OperatorClipLocal.java
/home/jyin/tweets_geographic_context/src/SpatialAnalysis/src/main/java/com/esri/core/geometry/Proximity2DResult.java
/home/jyin/tweets_geographic_context/src/SpatialAnalysis/src/main/java/com/esri/core/geometry/OperatorDisjoint.java
/home/jyin/tweets_geographic_context/src/SpatialAnalysis/src/main/java/com/esri/core/geometry/OperatorDifference.java
/home/jyin/tweets_geographic_context/src/SpatialAnalysis/src/main/java/com/esri/core/geometry/AttributeStreamOfInt16.java
/home/jyin/tweets_geographic_context/src/SpatialAnalysis/src/main/java/com/esri/core/geometry/Point2D.java
/home/jyin/tweets_geographic_context/src/SpatialAnalysis/src/main/java/com/esri/core/geometry/Transformation2D.java
/home/jyin/tweets_geographic_context/src/SpatialAnalysis/src/main/java/com/esri/core/geometry/OperatorSimplifyLocalOGC.java
/home/jyin/tweets_geographic_context/src/SpatialAnalysis/src/main/java/com/esri/json/serializer/SpatialReferenceJsonSerializer.java
/home/jyin/tweets_geographic_context/src/SpatialAnalysis/src/main/java/com/esri/core/geometry/OperatorRelateLocal.java
/home/jyin/tweets_geographic_context/src/SpatialAnalysis/src/main/java/com/esri/core/geometry/OperatorSymmetricDifference.java
/home/jyin/tweets_geographic_context/src/SpatialAnalysis/src/main/java/com/esri/core/geometry/OperatorExportToJson.java
/home/jyin/tweets_geographic_context/src/SpatialAnalysis/src/main/java/com/esri/core/geometry/MultiPathImpl.java
/home/jyin/tweets_geographic_context/src/SpatialAnalysis/src/main/java/com/esri/core/geometry/OperatorOffsetCursor.java
/home/jyin/tweets_geographic_context/src/SpatialAnalysis/src/main/java/edu/geocomplexity/gis/spark/SparkMain.java
/home/jyin/tweets_geographic_context/src/SpatialAnalysis/src/main/java/com/esri/core/geometry/OperatorBuffer.java
/home/jyin/tweets_geographic_context/src/SpatialAnalysis/src/main/java/com/esri/core/geometry/GeoJsonImportFlags.java
/home/jyin/tweets_geographic_context/src/SpatialAnalysis/src/main/java/edu/geocomplexity/gis/spark/CubeCoordinate.java
/home/jyin/tweets_geographic_context/src/SpatialAnalysis/src/main/java/com/esri/core/geometry/RelationalOperations.java
